﻿**************************************************************************************************
***************************************7/27/2018 9:14:37 AM***************************************
INFORMATION
http://localhost:59346/api/login  ||  Method: POST
Cache-Control: no-cache
Connection: keep-alive
Accept: */*
Accept-Encoding: gzip, deflate
Host: localhost:59346
User-Agent: PostmanRuntime/7.2.0
Postman-Token: abb502a8-0836-4a68-874c-dbdad3c935b3

{"email":"admin@gmail.com","password":"123456","timestamp":"1531980089","signature":"6BD8C8FEBDFFE92691704EEC222D05FBB58F68EC5129C2DF5D91E5F71F5C2B9E"}
**************************************************************************************************
***************************************7/27/2018 12:01:33 PM***************************************
INFORMATION
http://localhost:59346/api/users/create-sub-user  ||  Method: POST
Cache-Control: no-cache
Connection: keep-alive
Accept: */*
Accept-Encoding: gzip, deflate
Host: localhost:59346
User-Agent: PostmanRuntime/7.2.0
Postman-Token: 897c34de-b447-4e5f-b6d5-4a0b233c2f70

{"email":"admin@gmail.com","password":"123456","timestamp":"1531980089","signature":"6BD8C8FEBDFFE92691704EEC222D05FBB58F68EC5129C2DF5D91E5F71F5C2B9E"}
**************************************************************************************************
***************************************7/27/2018 12:01:33 PM***************************************
INFORMATION
http://localhost:59346/api/login  ||  Method: POST
Cache-Control: no-cache
Connection: keep-alive
Accept: */*
Accept-Encoding: gzip, deflate
Host: localhost:59346
User-Agent: PostmanRuntime/7.2.0
Postman-Token: 9d2f9442-3593-43bd-9068-5c2d061f7523

{"email":"admin@gmail.com","password":"123456","timestamp":"1531980089","signature":"6BD8C8FEBDFFE92691704EEC222D05FBB58F68EC5129C2DF5D91E5F71F5C2B9E"}
**************************************************************************************************
***************************************7/27/2018 12:01:33 PM***************************************
INFORMATION
http://localhost:59346/api/users/create-sub-user  ||  Method: POST
Cache-Control: no-cache
Connection: keep-alive
Accept: */*
Accept-Encoding: gzip, deflate
Authorization: eyJhbGciOiJIUzI1NiIsInR5cCI6IkpXVCJ9.eyJlbWFpbCI6ImFkbWluQGdtYWlsLmNvbSIsIm5iZiI6MTUzMjY2NzcwOSwiZXhwIjoxNTMyNjcxMzA5LCJpYXQiOjE1MzI2Njc3MDl9.AMl-tFwNqmNI4v_Rw5jcwzK4CKfFAPqKowBlxgYfxBg
Host: localhost:59346
User-Agent: PostmanRuntime/7.2.0
Postman-Token: 4d104ef6-bf32-4db7-8fa6-f9b193520886

{"email":"admin@gmail.com","password":"123456","timestamp":"1531980089","signature":"6BD8C8FEBDFFE92691704EEC222D05FBB58F68EC5129C2DF5D91E5F71F5C2B9E"}
**************************************************************************************************
***************************************7/27/2018 12:03:59 PM***************************************
INFORMATION
http://localhost:59346/api/users/create-sub-user  ||  Method: POST
Cache-Control: no-cache
Connection: keep-alive
Accept: */*
Accept-Encoding: gzip, deflate
Authorization: eyJhbGciOiJIUzI1NiIsInR5cCI6IkpXVCJ9.eyJlbWFpbCI6ImFkbWluQGdtYWlsLmNvbSIsIm5iZiI6MTUzMjY2NzcwOSwiZXhwIjoxNTMyNjcxMzA5LCJpYXQiOjE1MzI2Njc3MDl9.AMl-tFwNqmNI4v_Rw5jcwzK4CKfFAPqKowBlxgYfxBg
Host: localhost:59346
User-Agent: PostmanRuntime/7.2.0
Postman-Token: 56d852b4-2627-4eb7-835a-e91b417354a7

{"email":"admin@gmail.com","password":"123456","timestamp":"1531980089","signature":"6BD8C8FEBDFFE92691704EEC222D05FBB58F68EC5129C2DF5D91E5F71F5C2B9E"}
**************************************************************************************************
***************************************7/27/2018 12:03:59 PM***************************************
INFORMATION
http://localhost:59346/api/users/create-sub-user  ||  Method: POST
Cache-Control: no-cache
Connection: keep-alive
Accept: */*
Accept-Encoding: gzip, deflate
Authorization: eyJhbGciOiJIUzI1NiIsInR5cCI6pXVCJ9.eyJlbWFpbCI6ImFkbWluQGdtYWlsLmNvbSIsIm5iZiI6MTUzMjY2NzcwOSwiZXhwIjoxNTMyNjcxMzA5LCJpYXQiOjE1MzI2Njc3MDl9.AMl-tFwNqmNI4v_Rw5jcwzK4CKfFAPqKowBlxgYfxBg
Host: localhost:59346
User-Agent: PostmanRuntime/7.2.0
Postman-Token: 7c055ace-9424-41ea-8d86-4e70e380a68e

{"email":"admin@gmail.com","password":"123456","timestamp":"1531980089","signature":"6BD8C8FEBDFFE92691704EEC222D05FBB58F68EC5129C2DF5D91E5F71F5C2B9E"}
**************************************************************************************************
***************************************7/27/2018 12:03:59 PM***************************************
INFORMATION
http://localhost:59346/api/users/create-sub-user  ||  Method: POST
Cache-Control: no-cache
Connection: keep-alive
Accept: */*
Accept-Encoding: gzip, deflate
Authorization: eyJhbGciOiJIUzI1NiIsInR5cCI6pXVCJ9.eyJlbWFpbCI6ImFkbWluQGdtYWlsLmNvbSIsIm5iZiI6MTUzMjY2NzcwOSwiZXhwIjoxNTMyNjcxMzA5LCJpYXQiOjE1MzI2Njc3MDl9.AMl-tFwNqmNI4v_Rw5jcwzK4CKfFAPqKowBlxgYfxBg
Host: localhost:59346
User-Agent: PostmanRuntime/7.2.0
Postman-Token: 2cf35c60-f5b5-4ac4-87f4-e9ab66a4b076

{"email":"admin@gmail.com","password":"123456","timestamp":"1531980089","signature":"6BD8C8FEBDFFE92691704EEC222D05FBB58F68EC5129C2DF5D91E5F71F5C2B9E"}
**************************************************************************************************
***************************************7/27/2018 12:07:27 PM***************************************
INFORMATION
http://localhost:59346/api/users/create-sub-user  ||  Method: POST
Cache-Control: no-cache
Connection: keep-alive
Accept: */*
Accept-Encoding: gzip, deflate
Authorization: eyJhbGciOiJIUzI1NiIsInR5cCI6pXVCJ9.eyJlbWFpbCI6ImFkbWluQGdtYWlsLmNvbSIsIm5iZiI6MTUzMjY2NzcwOSwiZXhwIjoxNTMyNjcxMzA5LCJpYXQiOjE1MzI2Njc3MDl9.AMl-tFwNqmNI4v_Rw5jcwzK4CKfFAPqKowBlxgYfxBg
Host: localhost:59346
User-Agent: PostmanRuntime/7.2.0
Postman-Token: 24f76598-04bf-46a0-8d0b-aa024ca21275

{"email":"admin@gmail.com","password":"123456","timestamp":"1531980089","signature":"6BD8C8FEBDFFE92691704EEC222D05FBB58F68EC5129C2DF5D91E5F71F5C2B9E"}
**************************************************************************************************
***************************************7/27/2018 12:07:27 PM***************************************
INFORMATION
http://localhost:59346/api/login  ||  Method: POST
Cache-Control: no-cache
Connection: keep-alive
Accept: */*
Accept-Encoding: gzip, deflate
Authorization: eyJhbGciOiJIUzI1NiIsInR5cCI6pXVCJ9.eyJlbWFpbCI6ImFkbWluQGdtYWlsLmNvbSIsIm5iZiI6MTUzMjY2NzcwOSwiZXhwIjoxNTMyNjcxMzA5LCJpYXQiOjE1MzI2Njc3MDl9.AMl-tFwNqmNI4v_Rw5jcwzK4CKfFAPqKowBlxgYfxBg
Host: localhost:59346
User-Agent: PostmanRuntime/7.2.0
Postman-Token: 915c6c47-68db-4880-bb44-d10fd1c25ee5

{"email":"admin@gmail.com","password":"123456","timestamp":"1531980089","signature":"6BD8C8FEBDFFE92691704EEC222D05FBB58F68EC5129C2DF5D91E5F71F5C2B9E"}
**************************************************************************************************
***************************************7/27/2018 12:07:27 PM***************************************
INFORMATION
http://localhost:59346/api/login  ||  Method: POST
Cache-Control: no-cache
Connection: keep-alive
Accept: */*
Accept-Encoding: gzip, deflate
Authorization: eyJhbGciOiJIUzI1NiIsInR5cCI6IkpXVCJ9.eyJlbWFpbCI6ImFkbWluQGdtYWlsLmNvbSIsIm5iZiI6MTUzMjY2ODA2OSwiZXhwIjoxNTMyNjcxNjY5LCJpYXQiOjE1MzI2NjgwNjl9.dGxLsJBeZ-s4ZUaRF5uBhnoHjnhAcdijBwPoSzxMvAc
Host: localhost:59346
User-Agent: PostmanRuntime/7.2.0
Postman-Token: a8728eec-2569-4b47-b4e2-bffce965a217

{"email":"admingmail.com","password":"123456","timestamp":"1531980089","signature":"6BD8C8FEBDFFE92691704EEC222D05FBB58F68EC5129C2DF5D91E5F71F5C2B9E"}
**************************************************************************************************
***************************************7/27/2018 12:07:27 PM***************************************
INFORMATION
admingmail.com || Sai thông tin đăng nhập


**************************************************************************************************
***************************************7/27/2018 12:07:27 PM***************************************
INFORMATION
http://localhost:59346/api/users/create-sub-user  ||  Method: POST
Cache-Control: no-cache
Connection: keep-alive
Accept: */*
Accept-Encoding: gzip, deflate
Authorization: eyJhbGciOiJIUzI1NiIsInR5cCI6IkpXVCJ9.eyJlbWFpbCI6ImFkbWluQGdtYWlsLmNvbSIsIm5iZiI6MTUzMjY2ODA2OSwiZXhwIjoxNTMyNjcxNjY5LCJpYXQiOjE1MzI2NjgwNjl9.dGxLsJBeZ-s4ZUaRF5uBhnoHjnhAcdijBwPoSzxMvAc
Host: localhost:59346
User-Agent: PostmanRuntime/7.2.0
Postman-Token: efaf75da-49dc-4e5e-a6d4-433a5c3bcfef

{"email":"admingmail.com","password":"123456","timestamp":"1531980089","signature":"6BD8C8FEBDFFE92691704EEC222D05FBB58F68EC5129C2DF5D91E5F71F5C2B9E"}
**************************************************************************************************
***************************************7/27/2018 12:07:27 PM***************************************
INFORMATION
http://localhost:59346/api/users/create-sub-user  ||  Method: POST
Cache-Control: no-cache
Connection: keep-alive
Accept: */*
Accept-Encoding: gzip, deflate
Authorization: eyJhbGciOiJIUzI1NiIsInRcCI6IkpXVCJ9.eyJlbWFpbCI6ImFkbWluQGdtYWlsLmNvbSIsIm5iZiI6MTUzMjY2ODA2OSwiZXhwIjoxNTMyNjcxNjY5LCJpYXQiOjE1MzI2NjgwNjl9.dGxLsJBeZ-s4ZUaRF5uBhnoHjnhAcdijBwPoSzxMvAc
Host: localhost:59346
User-Agent: PostmanRuntime/7.2.0
Postman-Token: a3257615-70e5-4d80-b534-3ecef31b0ef3

{"email":"admingmail.com","password":"123456","timestamp":"1531980089","signature":"6BD8C8FEBDFFE92691704EEC222D05FBB58F68EC5129C2DF5D91E5F71F5C2B9E"}
**************************************************************************************************
***************************************7/27/2018 12:07:27 PM***************************************
INFORMATION
http://localhost:59346/api/users/create-sub-user  ||  Method: POST
Cache-Control: no-cache
Connection: keep-alive
Accept: */*
Accept-Encoding: gzip, deflate
Authorization: eyJhbGciOiJIUzI1NiIsInR5cCI6IkpXVCJ9.eyJlbWFpbCI6ImFkbWluQGdtYWlsLmNvbSIsIm5iZiI6MTUzMjY2ODA2OSwiZXhwIjoxNTMyNjcxNjY5LCJpYXQiOjE1MzI2NjgwNjl9.dGxLsJBeZ-s4ZUaRF5uBhnoHjnhAcdijBwPoSzxMvAc
Host: localhost:59346
User-Agent: PostmanRuntime/7.2.0
Postman-Token: 1869a14e-dfba-407d-836f-b050835b4718

{"email":"admingmail.com","password":"123456","timestamp":"1531980089","signature":"6BD8C8FEBDFFE92691704EEC222D05FBB58F68EC5129C2DF5D91E5F71F5C2B9E"}
**************************************************************************************************
***************************************7/27/2018 12:07:27 PM***************************************
INFORMATION
http://localhost:59346/api/users/create-sub-user  ||  Method: POST
Cache-Control: no-cache
Connection: keep-alive
Accept: */*
Accept-Encoding: gzip, deflate
Authorization: eyJhbGciOiJIUzI1NiIsInR5cCI6IkpXVCJ9.eyJlbWFpbCI6ImFkbWluQGdtYWlsLmNvbSIsIm5iZiI6MTUzMjY2ODA2OSwiZXhwIjoxNTMyNjcxNjY5LCJpYXQiOjE1MzI2NjgwNjl9.dGxLsJBeZ-s4ZUaRF5uBhnoHjnhAcdijBwPoSzxMvAc
Host: localhost:59346
User-Agent: PostmanRuntime/7.2.0
Postman-Token: 7b721720-e84a-46f9-9fdf-92a5cfc49ef0

{"email":"admingmail.com","password":"123456","timestamp":"1531980089","signature":"6BD8C8FEBDFFE92691704EEC222D05FBB58F68EC5129C2DF5D91E5F71F5C2B9E"}
